{
  "_id": "1",
  "slug": "retorno-de-consulta",
  "title": "Retorno de consulta",
  "segment": {
    "_id": "1",
    "slug": "saude",
    "title": "Saúde",
    "description": "Aborde seus pacientes com as melhores pesquisas"
  },
  "category": {
    "_id": "1",
    "slug": "odontologia",
    "title": "Odontologia",
    "description": "Pesquisas para pacientes de seu consultório odontológico"
  },
  "questions": [
    {
      "_id": "1",
      "title": "Recomendação",
      "question": "De 0 a 10, você recomendaria a clínica para um amigo ou familiar?"
    }, {
      "_id": "2",
      "title": "Comentários",
      "question": "Tem algo a comentar?"
    }, {
      "_id": "3",
      "title": "Atendimento",
      "question": "Como você avalia o atendimento?"
    }, {
      "_id": "4",
      "title": "Recomendação",
      "question": "De 0 a 10, você recomendaria a clínica para um amigo ou familiar?"
    }, {
      "_id": "5",
      "title": "Comentários",
      "question": "Tem algo a comentar?"
    }, {
      "_id": "6",
      "title": "Atendimento",
      "question": "Como você avalia o atendimento?"
    }, {
      "_id": "7",
      "title": "Comentários",
      "question": "Tem algo a comentar?"
    }, {
      "_id": "8",
      "title": "Atendimento",
      "question": "Como você avalia o atendimento?"
    }
  ]
}