[
  {
    "_id": "1",
    "slug": "saude",
    "title": "Saúde",
    "description": "Aborde seus pacientes com as melhores pesquisas",
    "color": "#6fdbc"
  },
  {
    "_id": "2",
    "slug": "hotelaria",
    "title": "Hotelaria",
    "description": "Aborde seus pacientes com as melhores pesquisas",
    "color": "#6fdbc"
  }, {
    "_id": "3",
    "slug": "loja-virtual",
    "title": "Loja virtual",
    "description": "Aborde seus pacientes com as melhores pesquisas",
    "color": "#6fdbc"
  }, {
    "_id": "4",
    "slug": "loja-fisica",
    "title": "Loja física",
    "description": "Aborde seus pacientes com as melhores pesquisas",
    "color": "#6fdbc"
  }, {
    "_id": "5",
    "slug": "varejo",
    "title": "Varejo",
    "description": "Aborde seus pacientes com as melhores pesquisas",
    "color": "#6fdbc"
  }
]